{
	"appName": "VP Apps Tools",
	"appVersion": "1.0.0.4",
	"appDate": "Sep, 30 2020",
	"appPassword": "tdf!",
	"contactsUrl": "https://fdt-excel-api.azurewebsites.net/api/v1.0/contacts",
	"uploadFile": "https://fdt-excel-api.azurewebsites.net/api/v1.0/files",
	"logosWorksheet": "Logos",
	"logosWorksheetws141": "1.41-Proposal Letter",
	"logosTable": "Table.Logos",
	"logosNX": "NX",
	"logoCurrentLogo": "CurrentLogo",
	"logoTableColumn": "I",
	"logoTableHeaderRow": "8",
	"logoWorksheets": [
		{
			"name": "1.41-Proposal Letter",
			"imageRange": "C1",
			"protected": true
		},
		{
			"name": "1.42-Clarif. & Excl.",
			"imageRange": "E2",
			"protected": true
		},
		{
			"name": "Logos",
			"imageRange": "I2",
			"protected": false
		}		
	],
	"contact": {
		"rangeName": "ContactName",
		"rangeEmail": "ContactEmail",
		"rangePhone": "CompanyPhone",
		"rangeContacts": "Query1",
		"worksheet": "1.42-Clarif. & Excl."
	}
}